DS 5100: Programming for Data Science - NB: Dplyr
…
Getting a dataset

Let’s use a dataset containing air pollution and temperature data for the city of Chicago in the U.S.

You will find the data in the directory for this module.

We load the data into R using the readRDS() function and then convert it to a tibble.

chicago <- readRDS("chicago.rds") %>% as_tibble()

We can see some basic characteristics of the dataset with the print() function.

print(chicago)

# A tibble: 6,940 × 8
   city   tmpd  dptp date       pm25tmean2 pm10tmean2 o3tmean2 no2tmean2
   <chr> <dbl> <dbl> <date>          <dbl>      <dbl>    <dbl>     <dbl>
 1 chic   31.5  31.5 1987-01-01         NA       34       4.25      20.0
 2 chic   33    29.9 1987-01-02         NA       NA       3.30      23.2
 3 chic   33    27.4 1987-01-03         NA       34.2     3.33      23.8
 4 chic   29    28.6 1987-01-04         NA       47       4.38      30.4
 5 chic   32    28.9 1987-01-05         NA       NA       4.75      30.3
 6 chic   40    35.1 1987-01-06         NA       48       5.83      25.8
 7 chic   34.5  26.8 1987-01-07         NA       41       9.29      20.6
 8 chic   29    22   1987-01-08         NA       36      11.3       17.0
 9 chic   26.5  29   1987-01-09         NA       33.3     4.5       23.4
10 chic   32.5  27.8 1987-01-10         NA       NA       4.96      19.5
# ℹ 6,930 more rows
…
